<svg width="24" height="24" viewBox="0 0 24 24" fill="none" xmlns="http://www.w3.org/2000/svg">
<circle cx="12" cy="12" r="5.5" stroke="black"/>
<circle cx="12" cy="12" r="8.5" stroke="#17181D"/>
<circle cx="12" cy="12" r="11.5" stroke="#17181D"/>
</svg>
