<svg width="20" height="20" viewBox="0 0 20 20" fill="none" xmlns="http://www.w3.org/2000/svg">
<path fill-rule="evenodd" clip-rule="evenodd" d="M9.99988 15.1852C12.8636 15.1852 15.1851 12.8637 15.1851 10C15.1851 7.13631 12.8636 4.81482 9.99988 4.81482C7.13618 4.81482 4.8147 7.13631 4.8147 10C4.8147 12.8637 7.13618 15.1852 9.99988 15.1852ZM6.98104 9.99964C6.98104 8.36038 8.31585 7.0263 9.95511 7.0263C11.5947 7.0263 12.9288 8.36075 12.9288 9.99964C12.9288 11.6396 11.5951 12.9741 9.95511 12.9741C8.31585 12.9741 6.98104 11.6396 6.98104 9.99964Z" fill="#A98567"/>
<path d="M16.6666 4.62961C16.6666 5.34553 16.0862 5.92591 15.3703 5.92591C14.6543 5.92591 14.074 5.34553 14.074 4.62961C14.074 3.91368 14.6543 3.33331 15.3703 3.33331C16.0862 3.33331 16.6666 3.91368 16.6666 4.62961Z" fill="#A98567"/>
<path fill-rule="evenodd" clip-rule="evenodd" d="M5.18518 0C2.32149 0 0 2.32149 0 5.18519V14.8148C0 17.6785 2.32149 20 5.18519 20H14.8148C17.6785 20 20 17.6785 20 14.8148V5.18518C20 2.32149 17.6785 0 14.8148 0H5.18518ZM4.81481 2.22222C3.38297 2.22222 2.22222 3.38297 2.22222 4.81482V15.1852C2.22222 16.617 3.38297 17.7778 4.81482 17.7778H15.1852C16.617 17.7778 17.7778 16.617 17.7778 15.1852V4.81481C17.7778 3.38297 16.617 2.22222 15.1852 2.22222H4.81481Z" fill="#A98567"/>
</svg>
