{
  "isFront": false,
  "onDemand": [
    "404",
    "about",
    "blocks",
    "contacts-page",
    "faq-page",
    "index",
    "news",
    "portfolio-page",
    "projects-page",
    "reviews-page",
    "services-page",
    "stocks",
    "text-page",
    "stocks-in",
    "news-in"
  ],
  "blocks": {
    "app-footer": [
      "about",
      "blocks",
      "contacts-page",
      "faq-page",
      "index",
      "news",
      "portfolio-page",
      "projects-page",
      "reviews-page",
      "services-page",
      "stocks",
      "text-page",
      "stocks-in",
      "news-in"
    ],
    "app-header": [
      "about",
      "blocks",
      "contacts-page",
      "faq-page",
      "index",
      "news",
      "portfolio-page",
      "projects-page",
      "reviews-page",
      "services-page",
      "stocks",
      "text-page",
      "stocks-in",
      "news-in"
    ],
    "app": [
      "404",
      "about",
      "blocks",
      "contacts-page",
      "faq-page",
      "index",
      "news",
      "portfolio-page",
      "projects-page",
      "reviews-page",
      "services-page",
      "stocks",
      "text-page",
      "stocks-in",
      "news-in"
    ],
    "about": [
      "about"
    ],
    "call-modal": [
      "404",
      "about",
      "blocks",
      "contacts-page",
      "faq-page",
      "index",
      "news",
      "portfolio-page",
      "projects-page",
      "reviews-page",
      "services-page",
      "stocks",
      "text-page",
      "stocks-in",
      "news-in"
    ],
    "common-tabs-portfolio": [],
    "common-tabs-project": [],
    "common-tabs": [
      "blocks",
      "portfolio-page",
      "projects-page"
    ],
    "contacts": [
      "about",
      "blocks",
      "contacts-page",
      "faq-page",
      "index",
      "news",
      "portfolio-page",
      "projects-page",
      "reviews-page",
      "services-page",
      "stocks",
      "text-page",
      "stocks-in",
      "news-in"
    ],
    "faq": [
      "faq-page"
    ],
    "filter": [
      "projects-page"
    ],
    "first-screen": [
      "index"
    ],
    "form-free-calc": [
      "portfolio-page",
      "projects-page"
    ],
    "form-reviews": [
      "reviews-page"
    ],
    "inner-page-text": [
      "text-page"
    ],
    "logo": [
      "about",
      "blocks",
      "contacts-page",
      "faq-page",
      "index",
      "news",
      "portfolio-page",
      "projects-page",
      "reviews-page",
      "services-page",
      "stocks",
      "text-page",
      "stocks-in",
      "news-in"
    ],
    "main-about": [
      "about",
      "contacts-page",
      "faq-page",
      "index",
      "news",
      "portfolio-page",
      "projects-page",
      "reviews-page",
      "services-page",
      "stocks",
      "text-page",
      "stocks-in",
      "news-in"
    ],
    "main-guarantee": [
      "about",
      "contacts-page",
      "faq-page",
      "index",
      "news",
      "portfolio-page",
      "projects-page",
      "reviews-page",
      "services-page",
      "stocks",
      "text-page",
      "stocks-in",
      "news-in"
    ],
    "main-menu": [
      "about",
      "blocks",
      "contacts-page",
      "faq-page",
      "index",
      "news",
      "portfolio-page",
      "projects-page",
      "reviews-page",
      "services-page",
      "stocks",
      "text-page",
      "stocks-in",
      "news-in"
    ],
    "mobile-menu": [
      "about",
      "blocks",
      "contacts-page",
      "faq-page",
      "index",
      "news",
      "portfolio-page",
      "projects-page",
      "reviews-page",
      "services-page",
      "stocks",
      "text-page",
      "stocks-in",
      "news-in"
    ],
    "news": [
      "news"
    ],
    "our-contacts": [
      "contacts-page"
    ],
    "page-scroller": [],
    "pagination": [
      "news",
      "portfolio-page",
      "projects-page"
    ],
    "projects-portfolio": [],
    "projects": [
      "portfolio-page",
      "projects-page"
    ],
    "recommended-projects": [
      "index"
    ],
    "reviews-about-us": [
      "index"
    ],
    "reviews-all": [
      "reviews-page"
    ],
    "s-path": [
      "about",
      "contacts-page",
      "faq-page",
      "news",
      "portfolio-page",
      "projects-page",
      "reviews-page",
      "services-page",
      "stocks",
      "text-page",
      "stocks-in",
      "news-in"
    ],
    "search": [
      "about",
      "blocks",
      "contacts-page",
      "faq-page",
      "index",
      "news",
      "portfolio-page",
      "projects-page",
      "reviews-page",
      "services-page",
      "stocks",
      "text-page",
      "stocks-in",
      "news-in"
    ],
    "services": [
      "services-page"
    ],
    "social-link": [
      "about",
      "blocks",
      "contacts-page",
      "faq-page",
      "index",
      "news",
      "portfolio-page",
      "projects-page",
      "reviews-page",
      "services-page",
      "stocks",
      "text-page",
      "stocks-in",
      "news-in"
    ],
    "stocks": [
      "stocks"
    ],
    "take-test": [
      "portfolio-page",
      "projects-page"
    ],
    "top-line": [
      "about",
      "blocks",
      "contacts-page",
      "faq-page",
      "index",
      "news",
      "portfolio-page",
      "projects-page",
      "reviews-page",
      "services-page",
      "stocks",
      "text-page",
      "stocks-in",
      "news-in"
    ],
    "types-products": [
      "index"
    ],
    "top-line-inner": [
      "contacts-page",
      "faq-page",
      "portfolio-page",
      "projects-page",
      "reviews-page",
      "services-page",
      "text-page"
    ],
    "our-advantages": [
      "index"
    ],
    "inner-page-desc": [
      "services-page",
      "text-page"
    ],
    "stocks-in": [
      "stocks-in"
    ],
    "news-in": [
      "news-in"
    ]
  },
  "pages": {
    "404": [
      "app",
      "call-modal"
    ],
    "about": [
      "app",
      "app-header",
      "logo",
      "contacts",
      "main-menu",
      "search",
      "social-link",
      "top-line",
      "mobile-menu",
      "about",
      "s-path",
      "main-guarantee",
      "main-about",
      "app-footer",
      "call-modal"
    ],
    "blocks": [
      "app",
      "app-header",
      "logo",
      "contacts",
      "main-menu",
      "search",
      "social-link",
      "top-line",
      "mobile-menu",
      "common-tabs",
      "app-footer",
      "call-modal"
    ],
    "contacts-page": [
      "app",
      "app-header",
      "logo",
      "contacts",
      "main-menu",
      "search",
      "social-link",
      "top-line",
      "mobile-menu",
      "top-line-inner",
      "s-path",
      "our-contacts",
      "main-guarantee",
      "main-about",
      "app-footer",
      "call-modal"
    ],
    "faq-page": [
      "app",
      "app-header",
      "logo",
      "contacts",
      "main-menu",
      "search",
      "social-link",
      "top-line",
      "mobile-menu",
      "top-line-inner",
      "s-path",
      "faq",
      "main-guarantee",
      "main-about",
      "app-footer",
      "call-modal"
    ],
    "index": [
      "app",
      "app-header",
      "logo",
      "contacts",
      "main-menu",
      "search",
      "social-link",
      "top-line",
      "mobile-menu",
      "first-screen",
      "our-advantages",
      "types-products",
      "recommended-projects",
      "main-guarantee",
      "reviews-about-us",
      "main-about",
      "app-footer",
      "call-modal"
    ],
    "news": [
      "app",
      "app-header",
      "logo",
      "contacts",
      "main-menu",
      "search",
      "social-link",
      "top-line",
      "mobile-menu",
      "news",
      "s-path",
      "pagination",
      "main-guarantee",
      "main-about",
      "app-footer",
      "call-modal"
    ],
    "portfolio-page": [
      "app",
      "app-header",
      "logo",
      "contacts",
      "main-menu",
      "search",
      "social-link",
      "top-line",
      "mobile-menu",
      "top-line-inner",
      "s-path",
      "take-test",
      "common-tabs",
      "projects",
      "form-free-calc",
      "pagination",
      "main-guarantee",
      "main-about",
      "app-footer",
      "call-modal"
    ],
    "projects-page": [
      "app",
      "app-header",
      "logo",
      "contacts",
      "main-menu",
      "search",
      "social-link",
      "top-line",
      "mobile-menu",
      "top-line-inner",
      "s-path",
      "take-test",
      "common-tabs",
      "filter",
      "projects",
      "form-free-calc",
      "pagination",
      "main-guarantee",
      "main-about",
      "app-footer",
      "call-modal"
    ],
    "reviews-page": [
      "app",
      "app-header",
      "logo",
      "contacts",
      "main-menu",
      "search",
      "social-link",
      "top-line",
      "mobile-menu",
      "top-line-inner",
      "s-path",
      "reviews-all",
      "form-reviews",
      "main-guarantee",
      "main-about",
      "app-footer",
      "call-modal"
    ],
    "services-page": [
      "app",
      "app-header",
      "logo",
      "contacts",
      "main-menu",
      "search",
      "social-link",
      "top-line",
      "mobile-menu",
      "top-line-inner",
      "s-path",
      "inner-page-desc",
      "services",
      "main-guarantee",
      "main-about",
      "app-footer",
      "call-modal"
    ],
    "stocks": [
      "app",
      "app-header",
      "logo",
      "contacts",
      "main-menu",
      "search",
      "social-link",
      "top-line",
      "mobile-menu",
      "stocks",
      "s-path",
      "main-guarantee",
      "main-about",
      "app-footer",
      "call-modal"
    ],
    "text-page": [
      "app",
      "app-header",
      "logo",
      "contacts",
      "main-menu",
      "search",
      "social-link",
      "top-line",
      "mobile-menu",
      "top-line-inner",
      "s-path",
      "inner-page-desc",
      "inner-page-text",
      "main-guarantee",
      "main-about",
      "app-footer",
      "call-modal"
    ],
    "stocks-in": [
      "app",
      "app-header",
      "logo",
      "contacts",
      "main-menu",
      "search",
      "social-link",
      "top-line",
      "mobile-menu",
      "stocks-in",
      "s-path",
      "main-guarantee",
      "main-about",
      "app-footer",
      "call-modal"
    ],
    "news-in": [
      "app",
      "app-header",
      "logo",
      "contacts",
      "main-menu",
      "search",
      "social-link",
      "top-line",
      "mobile-menu",
      "news-in",
      "s-path",
      "main-guarantee",
      "main-about",
      "app-footer",
      "call-modal"
    ]
  }
}